1.wav,"we've got no car number or name for that driver"
2.wav,"we've got no car number or name to refer to that driver"
3_male.wav,"we have no car number or name to refer to him"
4_male.wav,"we don't know his name or his car number"
5_male.wav,"we've no car number or name for that guy"
